<?xml version="1.0" encoding="utf-8"?>
<!-- Generator: Adobe Illustrator 23.1.1, SVG Export Plug-In . SVG Version: 6.00 Build 0)  -->
<svg version="1.0" id="Laag_1" xmlns="http://www.w3.org/2000/svg" xmlns:xlink="http://www.w3.org/1999/xlink" x="0px" y="0px"
	 viewBox="0 0 222 96" enable-background="new 0 0 222 96" xml:space="preserve">
<g>
	<path fill="#FFFFFF" d="M74.12,77.07h2.33h0.03l-0.07,0.68c-0.04,0.2-0.13,0.37-0.29,0.51c-0.16,0.14-0.33,0.21-0.53,0.21h-1.66
		l-0.57,4.32h2.34v0.02l-0.1,0.7c-0.02,0.2-0.11,0.36-0.26,0.49c-0.15,0.13-0.33,0.19-0.52,0.19h-3.05l0.84-6.45
		c0.01-0.09,0.05-0.17,0.1-0.25c0.05-0.08,0.11-0.15,0.19-0.22c0.08-0.06,0.16-0.11,0.25-0.15c0.09-0.04,0.19-0.06,0.29-0.06H74.12z
		"/>
	<path fill="#FFFFFF" d="M76.68,84.2l0.83-6.4c0.04-0.2,0.13-0.37,0.29-0.51s0.33-0.21,0.53-0.21h0.69
		c0.01,0.01,0.01,0.01,0.01,0.02v0.01l-0.85,6.41c-0.03,0.2-0.12,0.36-0.27,0.49s-0.33,0.2-0.53,0.2L76.68,84.2L76.68,84.2z"/>
	<path fill="#FFFFFF" d="M80.97,82.52l-0.04,0.29l2.16-0.01c0.01,0,0.01,0,0.01,0.01L83,83.51c-0.03,0.2-0.12,0.36-0.28,0.5
		c-0.16,0.13-0.34,0.2-0.54,0.2h-2.84h-0.02V84.2l0.54-3.9c0.03-0.18,0.11-0.33,0.24-0.47s0.29-0.21,0.47-0.23
		c0.03-0.01,0.06-0.01,0.09-0.01h2.92v0.01l-0.32,2.33c-0.03,0.18-0.13,0.33-0.29,0.43s-0.34,0.15-0.52,0.15L80.97,82.52z
		 M81.13,81.34h0.8l0.05-0.35h-0.8L81.13,81.34z"/>
	<path fill="#FFFFFF" d="M86.36,81.29l0.05-0.29h-2.16v-0.02l0.1-0.68c0.02-0.2,0.11-0.36,0.26-0.5c0.16-0.14,0.33-0.21,0.52-0.21
		h2.87v0.01l-0.54,3.92c-0.02,0.18-0.1,0.33-0.23,0.46c-0.13,0.13-0.29,0.21-0.46,0.23h-0.02h-0.09h-2.76h-0.14
		c-0.01,0-0.01,0-0.01-0.01c0.05-0.39,0.11-0.77,0.16-1.17c0.05-0.39,0.11-0.78,0.17-1.16c0.03-0.18,0.12-0.32,0.29-0.42
		c0.17-0.11,0.33-0.16,0.5-0.16H86.36z M86.21,82.44h-0.8l-0.05,0.37l0.8-0.01L86.21,82.44z"/>
	<path fill="#FFFFFF" d="M90.93,80.99h-0.87l-0.37,2.52c-0.02,0.2-0.11,0.36-0.27,0.49c-0.16,0.13-0.33,0.2-0.54,0.2H88.2V84.2
		l0.54-3.9c0.02-0.2,0.11-0.36,0.25-0.49c0.15-0.13,0.32-0.21,0.52-0.22h0.02h0.4h2.57h0.03v0.01L92,83.51
		c-0.03,0.2-0.12,0.36-0.27,0.49c-0.15,0.13-0.33,0.2-0.52,0.2h-0.7V84.2L90.93,80.99z"/>
	<path fill="#FFFFFF" d="M93.61,82.8c0.19,0,0.35,0.06,0.49,0.18c0.13,0.12,0.21,0.28,0.22,0.46v0.03v0.01v0.06
		c-0.01,0.13-0.03,0.26-0.07,0.4c-0.04,0.14-0.09,0.27-0.17,0.39c-0.08,0.12-0.17,0.22-0.29,0.31s-0.27,0.13-0.46,0.15l0.08-0.64
		c-0.14-0.05-0.25-0.13-0.34-0.25c-0.09-0.12-0.13-0.26-0.13-0.41c0-0.18,0.07-0.34,0.2-0.48C93.28,82.87,93.44,82.8,93.61,82.8z"/>
	<path fill="#FFFFFF" d="M99.4,84.2l0.82-6.45c0.02-0.09,0.06-0.17,0.11-0.25c0.05-0.08,0.11-0.15,0.18-0.22
		c0.07-0.06,0.15-0.11,0.24-0.15c0.09-0.04,0.18-0.06,0.28-0.06h3.51l-0.83,6.45c-0.03,0.2-0.13,0.36-0.28,0.49
		c-0.15,0.13-0.33,0.19-0.52,0.19H99.4z M100.98,82.79h1.38l0.6-4.32h-1.4L100.98,82.79z"/>
	<path fill="#FFFFFF" d="M106.49,84.21l-0.13,1.06c-0.02,0.2-0.11,0.36-0.27,0.49c-0.16,0.13-0.33,0.2-0.52,0.2h-0.71l0.76-5.66
		c0.02-0.18,0.1-0.33,0.22-0.47s0.28-0.21,0.47-0.23c0.01-0.01,0.04-0.01,0.09-0.01h2.94h0.01v0.01l-0.53,3.92
		c-0.02,0.2-0.11,0.36-0.27,0.49s-0.34,0.2-0.53,0.2H106.49z M106.68,82.8h0.81l0.24-1.81h-0.8L106.68,82.8z"/>
	<path fill="#FFFFFF" d="M110.74,80.97h-0.46h-0.01l0.2-1.39h0.01c0.01-0.01,0.01-0.01,0.02-0.01h0.42l0.05-0.5
		c0.03-0.19,0.12-0.35,0.28-0.49c0.16-0.14,0.34-0.21,0.53-0.21h0.69h0.01v0.01l-0.15,1.19h1.03v0.01l-0.09,0.69
		c-0.02,0.2-0.11,0.37-0.26,0.5c-0.16,0.14-0.33,0.21-0.53,0.23h-0.33l-0.25,1.79l1.26-0.01c0.01,0,0.01,0,0.01,0.01l-0.08,0.71
		c-0.03,0.2-0.13,0.36-0.28,0.5c-0.15,0.13-0.32,0.2-0.51,0.2h-1.97h-0.01l0.01-0.01L110.74,80.97z"/>
	<path fill="#FFFFFF" d="M113.85,84.2l0.54-3.9c0.03-0.19,0.12-0.36,0.28-0.5c0.16-0.14,0.33-0.21,0.53-0.21h0.69h0.01v0.01
		l-0.54,3.92c-0.04,0.2-0.13,0.36-0.28,0.49c-0.15,0.13-0.32,0.2-0.52,0.2h-0.69C113.86,84.21,113.85,84.2,113.85,84.2z
		 M114.64,77.75c0.05-0.19,0.15-0.34,0.28-0.44c0.13-0.11,0.31-0.17,0.52-0.2c0.21-0.03,0.47-0.04,0.77-0.03v0.03l-0.13,0.87
		c-0.02,0.19-0.11,0.32-0.26,0.39c-0.15,0.07-0.33,0.11-0.52,0.11h-0.69l-0.01-0.01C114.57,78.18,114.59,77.94,114.64,77.75z"/>
	<path fill="#FFFFFF" d="M120.04,80.99h-0.4l-0.34,2.52c-0.02,0.2-0.11,0.36-0.27,0.49c-0.16,0.13-0.34,0.2-0.54,0.2h-0.69V84.2
		l0.45-3.2h-0.37l-0.35,2.52c-0.02,0.2-0.11,0.36-0.27,0.49c-0.16,0.13-0.33,0.2-0.51,0.2h-0.7V84.2l0.51-3.9
		c0.04-0.19,0.12-0.35,0.27-0.49c0.14-0.14,0.3-0.21,0.48-0.22h0.06h4.25h0.02v0.01l-0.54,3.92c-0.03,0.2-0.12,0.36-0.28,0.49
		s-0.33,0.2-0.52,0.2h-0.71h-0.01V84.2L120.04,80.99z"/>
	<path fill="#FFFFFF" d="M121.72,84.2l0.54-3.9c0.03-0.19,0.12-0.36,0.27-0.5c0.16-0.14,0.33-0.21,0.53-0.21h0.69h0.01v0.01
		l-0.54,3.92c-0.03,0.2-0.12,0.36-0.27,0.49c-0.15,0.13-0.32,0.2-0.52,0.2h-0.69C121.73,84.21,121.72,84.2,121.72,84.2z
		 M122.52,77.75c0.05-0.19,0.15-0.34,0.28-0.44c0.13-0.11,0.3-0.17,0.52-0.2c0.21-0.03,0.47-0.04,0.77-0.03v0.03l-0.13,0.87
		c-0.02,0.19-0.11,0.32-0.26,0.39s-0.33,0.11-0.52,0.11h-0.69l-0.01-0.01C122.45,78.18,122.46,77.94,122.52,77.75z"/>
	<path fill="#FFFFFF" d="M126.03,81l-0.83-0.02c-0.2,0-0.37-0.07-0.53-0.2c-0.16-0.13-0.25-0.3-0.28-0.5l-0.08-0.69
		c0-0.01,0-0.01,0.01-0.01h0.01c0.69,0.01,1.38,0.01,2.07,0.01c0.68,0,1.37,0,2.05,0h0.01v0.01c-0.39,0.54-0.77,1.08-1.15,1.61
		c-0.38,0.53-0.77,1.06-1.15,1.6h1.92c0.01,0,0.01,0,0.01,0.01l-0.08,0.7c-0.03,0.2-0.13,0.36-0.29,0.49
		c-0.16,0.13-0.33,0.2-0.53,0.2h-3.46V84.2c0.38-0.54,0.76-1.08,1.15-1.61C125.25,82.06,125.64,81.53,126.03,81z"/>
	<path fill="#FFFFFF" d="M130.34,82.52l-0.04,0.29l2.16-0.01c0.01,0,0.01,0,0.01,0.01l-0.09,0.71c-0.03,0.2-0.12,0.36-0.28,0.5
		c-0.16,0.13-0.34,0.2-0.54,0.2h-2.84h-0.02V84.2l0.54-3.9c0.03-0.18,0.11-0.33,0.24-0.47c0.13-0.14,0.29-0.21,0.47-0.23
		c0.03-0.01,0.06-0.01,0.09-0.01h2.92v0.01l-0.32,2.33c-0.03,0.18-0.12,0.33-0.29,0.43c-0.17,0.1-0.34,0.15-0.52,0.15L130.34,82.52z
		 M130.5,81.34h0.8l0.05-0.35h-0.8L130.5,81.34z"/>
	<path fill="#FFFFFF" d="M134.08,82.8c0.19,0,0.35,0.06,0.49,0.18c0.13,0.12,0.21,0.28,0.22,0.46v0.03v0.01v0.06
		c-0.01,0.13-0.03,0.26-0.07,0.4c-0.04,0.14-0.09,0.27-0.17,0.39c-0.08,0.12-0.17,0.22-0.29,0.31s-0.27,0.13-0.46,0.15l0.08-0.64
		c-0.14-0.05-0.25-0.13-0.34-0.25c-0.09-0.12-0.13-0.26-0.13-0.41c0-0.18,0.07-0.34,0.2-0.48C133.75,82.87,133.9,82.8,134.08,82.8z"
		/>
	<path fill="#FFFFFF" d="M144.21,79.58h0.65v0.04l-0.49,3.9c-0.03,0.2-0.13,0.36-0.29,0.49s-0.34,0.19-0.53,0.19h-3.71h-0.04
		l0.87-6.45c0.02-0.09,0.05-0.17,0.11-0.25c0.05-0.08,0.11-0.15,0.18-0.22c0.07-0.06,0.15-0.11,0.24-0.15
		c0.09-0.04,0.19-0.06,0.28-0.06h3.51l-0.29,1.88c-0.01,0.14-0.07,0.26-0.16,0.38S144.33,79.52,144.21,79.58z M141.42,82.79H143
		l0.24-1.81h-1.59L141.42,82.79z M143.18,79.58l0.16-1.11h-1.35l-0.16,1.11H143.18z"/>
	<path fill="#FFFFFF" d="M148.08,81.29l0.05-0.29h-2.16v-0.02l0.1-0.68c0.02-0.2,0.11-0.36,0.26-0.5c0.16-0.14,0.33-0.21,0.52-0.21
		h2.87v0.01l-0.54,3.92c-0.02,0.18-0.1,0.33-0.23,0.46c-0.13,0.13-0.29,0.21-0.46,0.23h-0.02h-0.09h-2.76h-0.14
		c-0.01,0-0.01,0-0.01-0.01c0.05-0.39,0.11-0.77,0.16-1.17c0.05-0.39,0.11-0.78,0.17-1.16c0.03-0.18,0.12-0.32,0.29-0.42
		c0.17-0.11,0.33-0.16,0.5-0.16H148.08z M147.92,82.44h-0.8l-0.05,0.37l0.8-0.01L147.92,82.44z"/>
	<path fill="#FFFFFF" d="M151.79,80.99l-0.24,1.81l2.16-0.01c0.01,0,0.01,0,0.01,0.01l-0.08,0.71c-0.03,0.2-0.13,0.36-0.28,0.5
		c-0.15,0.13-0.33,0.2-0.52,0.2h-2.87c-0.01,0-0.01,0-0.01-0.01l0.54-3.9c0.03-0.19,0.11-0.35,0.25-0.49
		c0.14-0.14,0.3-0.21,0.48-0.22h0.05h2.81h0.01v0.01l-0.08,0.69c-0.03,0.2-0.13,0.37-0.29,0.5s-0.34,0.21-0.53,0.21H151.79z"/>
	<path fill="#FFFFFF" d="M156.38,81.59l0.87-1.31c0.05-0.07,0.1-0.14,0.15-0.22s0.11-0.16,0.17-0.22c0.06-0.07,0.13-0.13,0.21-0.17
		c0.08-0.05,0.16-0.07,0.25-0.07h0.94h0.02v0.01l-1.35,2l0.69,1.89c0.07,0.19,0.06,0.36-0.01,0.5c-0.08,0.14-0.22,0.21-0.43,0.21
		h-0.69h-0.02l-0.44-1.24l-0.38,0.55c-0.05,0.07-0.11,0.14-0.16,0.22s-0.11,0.16-0.17,0.22c-0.06,0.07-0.13,0.13-0.21,0.17
		c-0.08,0.05-0.17,0.07-0.27,0.07h-0.95V84.2l0.85-6.4c0.03-0.19,0.12-0.36,0.27-0.5c0.16-0.15,0.33-0.22,0.53-0.22h0.7v0.03
		L156.38,81.59z"/>
	<path fill="#FFFFFF" d="M160.99,82.8h0.87l0.36-2.5c0.01-0.2,0.1-0.36,0.25-0.5s0.33-0.21,0.53-0.21h0.69v0.01l-0.52,3.92
		c-0.03,0.2-0.12,0.36-0.27,0.49s-0.33,0.2-0.53,0.2h-2.98h-0.01V84.2l0.53-3.9c0.01-0.09,0.04-0.19,0.09-0.27
		c0.05-0.09,0.11-0.17,0.18-0.23s0.15-0.12,0.24-0.15c0.09-0.04,0.19-0.06,0.29-0.06h0.69v0.01L160.99,82.8z"/>
	<path fill="#FFFFFF" d="M165.4,84.21l-0.13,1.06c-0.02,0.2-0.11,0.36-0.27,0.49c-0.16,0.13-0.33,0.2-0.52,0.2h-0.71l0.76-5.66
		c0.02-0.18,0.09-0.33,0.22-0.47s0.29-0.21,0.47-0.23c0.01-0.01,0.04-0.01,0.09-0.01h2.94h0.01v0.01l-0.53,3.92
		c-0.02,0.2-0.11,0.36-0.27,0.49c-0.16,0.13-0.34,0.2-0.54,0.2H165.4z M165.59,82.8h0.81l0.24-1.81h-0.8L165.59,82.8z"/>
	<path fill="#FFFFFF" d="M174.88,79.56l-0.67-1.77c-0.07-0.19-0.06-0.36,0.02-0.5s0.23-0.21,0.45-0.21h0.67h2.66v0.04l-0.08,0.64
		c-0.03,0.2-0.12,0.36-0.28,0.5c-0.16,0.13-0.33,0.2-0.52,0.2h-1.23l0.4,1.1l0.29,0.71c0.03-0.2,0.12-0.36,0.27-0.5
		c0.15-0.14,0.33-0.21,0.52-0.21h0.7l-0.46,3.49l0.17,0.44c0.05,0.18,0.04,0.35-0.04,0.49c-0.08,0.15-0.22,0.22-0.44,0.22h-1.25
		h-0.03h-2.25h-0.07h-0.69l0.5-3.93c0.03-0.2,0.13-0.36,0.28-0.5c0.16-0.14,0.33-0.21,0.53-0.21H174.88L174.88,79.56z M176.11,82.79
		l-0.68-1.84h-0.56l-0.25,1.84H176.11z"/>
	<path fill="#FFFFFF" d="M185.53,77.07h2.33h0.03l-0.07,0.68c-0.03,0.2-0.13,0.37-0.28,0.51c-0.16,0.14-0.33,0.21-0.53,0.21h-1.66
		l-0.57,4.32h2.34v0.02l-0.1,0.7c-0.02,0.2-0.11,0.36-0.26,0.49s-0.33,0.19-0.52,0.19h-3.05l0.84-6.45c0.01-0.09,0.04-0.17,0.1-0.25
		c0.05-0.08,0.11-0.15,0.19-0.22c0.07-0.06,0.16-0.11,0.25-0.15c0.09-0.04,0.19-0.06,0.29-0.06H185.53z"/>
	<path fill="#FFFFFF" d="M188.1,84.2l0.83-6.4c0.03-0.2,0.13-0.37,0.29-0.51c0.16-0.14,0.33-0.21,0.53-0.21h0.69
		c0.01,0.01,0.01,0.01,0.01,0.02v0.01l-0.86,6.41c-0.03,0.2-0.12,0.36-0.27,0.49c-0.15,0.13-0.33,0.2-0.53,0.2L188.1,84.2
		L188.1,84.2z"/>
	<path fill="#FFFFFF" d="M190.77,84.2l0.54-3.9c0.03-0.19,0.11-0.35,0.25-0.49c0.14-0.14,0.3-0.21,0.48-0.22h0.07h2.98h0.03v0.01
		l-0.54,3.92c-0.03,0.2-0.13,0.36-0.28,0.49s-0.33,0.2-0.52,0.2h-3L190.77,84.2L190.77,84.2z M192.38,82.8h0.88l0.26-1.81h-0.9
		L192.38,82.8z"/>
	<path fill="#FFFFFF" d="M198.09,80.99h-0.86l-0.37,2.52c-0.02,0.2-0.11,0.36-0.26,0.49s-0.34,0.2-0.54,0.2h-0.69V84.2l0.54-3.9
		c0.02-0.2,0.11-0.36,0.25-0.49c0.15-0.13,0.32-0.21,0.52-0.22h0.02h0.4h2.57h0.03v0.01l-0.54,3.92c-0.03,0.2-0.12,0.36-0.27,0.49
		c-0.15,0.13-0.33,0.2-0.52,0.2h-0.7V84.2L198.09,80.99z"/>
	<path fill="#FFFFFF" d="M201.44,82.52l-0.04,0.29l2.16-0.01c0.01,0,0.01,0,0.01,0.01l-0.09,0.71c-0.03,0.2-0.12,0.36-0.28,0.5
		c-0.16,0.13-0.34,0.2-0.54,0.2h-2.84h-0.02V84.2l0.54-3.9c0.03-0.18,0.11-0.33,0.24-0.47c0.14-0.14,0.29-0.21,0.47-0.23
		c0.03-0.01,0.06-0.01,0.09-0.01h2.92v0.01l-0.31,2.33c-0.03,0.18-0.13,0.33-0.29,0.43c-0.17,0.1-0.34,0.15-0.52,0.15L201.44,82.52z
		 M201.6,81.34h0.8l0.05-0.35h-0.8L201.6,81.34z"/>
</g>
<path stroke="#FFFFFF" stroke-width="0.8259" stroke-miterlimit="10" d="M218.19,50.31l-1.57-1.96h-6.28h-3.19h-9.06h-3.41h-9.38
	h-3.36h-9.1h-3.03h-10.03l0.27-0.73l0.11-0.28l0.07-0.32c0.38-1.53,0.05-3.13-0.89-4.39l-1.55-2.08h-1.99l0.01-0.03h-16.67
	c-0.93,0-1.85,0.17-2.74,0.5c-0.74,0.28-1.45,0.65-2.1,1.12c-0.61,0.44-1.16,0.94-1.65,1.51c-0.6,0.7-1.07,1.46-1.38,2.28
	l-0.89,2.42h-3.58l0.38-0.98l1.55-6.52l-5.43-0.25l0.01-0.04h-1.05c-0.28-0.01-0.56-0.02-0.82-0.02c-0.21,0-0.42,0.01-0.62,0.02
	h-6.2c-1.73,0-3.42,0.59-4.9,1.7c-1.34,1.01-2.33,2.27-2.94,3.76l-0.04,0.09l-0.83,2.26h-2.29H93.8l2.92-7.83H77.78
	c-0.1-0.47-0.21-0.93-0.33-1.39c-0.88-3.39-2.24-6.65-4.03-9.7c-6.47-10.97-18.11-18-30.73-18.69l3.35-8.99H34.95
	c-2.11,0-4.12,0.69-5.98,2.06c-1.65,1.21-2.89,2.68-3.67,4.36l-0.09,0.2l-2.51,6.82C10.42,21.78,2.61,34.7,2.61,48.72
	c0,5.54,1.18,10.9,3.5,15.93c1.04,2.24,2.3,4.4,3.75,6.4c4.74,6.53,11.49,11.38,19.09,13.85l-3.33,8.92h11.09
	c2.06,0,4.02-0.64,5.84-1.89c1.77-1.22,3.07-2.82,3.87-4.75l0.03-0.08l0.31-0.83c9.07-1.46,17.27-6.16,23.16-13.26h7.44l-0.01,0.03
	H89.9h2.84h13.63c0.27,0,0.54-0.02,0.81-0.05l0.04,0.05h4.64c0.22,0,0.45-0.01,0.67-0.03l0.02,0.03h12.12l0.28-0.03h11.18
	l-0.01,0.03h6.94h1.74h13.67c0.37,0,0.74-0.03,1.1-0.08l0.07,0.08h8.51h3.61h8.86h3.32h9.53h2.5h6.22c1.65,0,3.29-0.54,4.74-1.56
	c1.42-1,2.48-2.36,3.07-3.92l1.75-4.62c1.2-0.22,2.36-0.73,3.42-1.5c1.4-1.01,2.45-2.37,3.03-3.95l0.91-2.45l0.63-2.78L218.19,50.31
	z"/>
<polygon fill="#4CB8AA" points="63.43,45.85 65.92,39.03 58.8,39.03 56.31,45.85 "/>
<radialGradient id="SVGID_1_" cx="44.4406" cy="43.254" r="38.4381" gradientUnits="userSpaceOnUse">
	<stop  offset="0.9192" style="stop-color:#E53373"/>
	<stop  offset="0.9194" style="stop-color:#EA5A8D"/>
	<stop  offset="0.9197" style="stop-color:#EF80A8"/>
	<stop  offset="0.92" style="stop-color:#F3A3C0"/>
	<stop  offset="0.9203" style="stop-color:#F7BFD3"/>
	<stop  offset="0.9207" style="stop-color:#FAD7E3"/>
	<stop  offset="0.9211" style="stop-color:#FCE9F0"/>
	<stop  offset="0.9216" style="stop-color:#FEF6F9"/>
	<stop  offset="0.9222" style="stop-color:#FFFDFE"/>
	<stop  offset="0.9237" style="stop-color:#FFFFFF"/>
	<stop  offset="0.9349" style="stop-color:#FFFFFF"/>
	<stop  offset="1" style="stop-color:#FFFFFF"/>
</radialGradient>
<path fill="url(#SVGID_1_)" d="M69.23,49.28c-0.34,0.99-0.97,1.83-1.9,2.51c-0.93,0.68-1.89,1.03-2.88,1.03H53.73l-4.3,11.64
	c-0.41,0.99-1.08,1.81-2.02,2.46c-0.94,0.65-1.91,0.97-2.9,0.97h-3.49h-0.15l12.18-32.51c0.35-0.89,0.99-1.68,1.92-2.38
	c0.94-0.7,1.9-1.05,2.89-1.05H69.1c-5.71-9.69-16.25-16.2-28.32-16.2c-18.15,0-32.86,14.71-32.86,32.86c0,4.91,1.09,9.57,3.02,13.76
	l9.81-26.98c0.42-0.89,1.1-1.68,2.05-2.38c0.95-0.7,1.92-1.05,2.92-1.05h3.49h0.15L18.6,60.82h3.03l9.32-25.43
	c0.38-0.89,1.05-1.68,2-2.38c0.95-0.7,1.92-1.05,2.92-1.05h3.54h0.05l-10.8,28.87h2.77l9.32-25.43c0.21-0.44,0.49-0.87,0.84-1.28
	c0.35-0.41,0.76-0.78,1.21-1.1c0.45-0.32,0.93-0.58,1.44-0.77c0.51-0.19,1-0.28,1.48-0.28h3.59L37.22,64.46
	c-0.3,0.99-0.92,1.81-1.84,2.46c-0.92,0.65-1.88,0.97-2.87,0.97H14.18c5.97,8.22,15.66,13.57,26.6,13.57
	c18.15,0,32.86-14.71,32.86-32.86c0-2.86-0.37-5.64-1.06-8.29L69.23,49.28z"/>
<path fill="#FFFFFF" d="M35.38,66.92c0.92-0.65,1.54-1.47,1.84-2.46L49.3,31.95h-3.59c-0.48,0-0.97,0.09-1.48,0.28
	c-0.51,0.19-0.99,0.44-1.44,0.77c-0.45,0.33-0.86,0.69-1.21,1.1c-0.35,0.41-0.63,0.84-0.84,1.28l-9.32,25.43h-2.77l10.8-28.87H39.4
	h-3.54c-0.99,0-1.96,0.35-2.92,1.05c-0.95,0.7-1.62,1.5-2,2.38l-9.32,25.43H18.6l20.12-54h-0.15h-3.49c-0.99,0-1.96,0.35-2.92,1.05
	c-0.95,0.7-1.64,1.5-2.05,2.38L10.94,62.37c0.9,1.95,1.99,3.8,3.24,5.53h18.34C33.5,67.89,34.46,67.57,35.38,66.92z"/>
<path fill="#FFFFFF" d="M54.97,33c-0.94,0.7-1.58,1.5-1.92,2.38L33.21,88.53h0.15h3.49c0.99,0,1.96-0.32,2.9-0.97
	c0.94-0.65,1.61-1.47,2.02-2.46l11.96-32.27h10.72c0.99,0,1.95-0.34,2.88-1.03c0.93-0.68,1.57-1.52,1.9-2.51l3.35-8.96
	c-0.77-2.98-1.96-5.79-3.48-8.37H57.86C56.87,31.95,55.91,32.3,54.97,33z M65.92,39.03l-2.49,6.82h-7.13l2.49-6.82H65.92z"/>
<linearGradient id="SVGID_2_" gradientUnits="userSpaceOnUse" x1="72.1726" y1="79.9616" x2="77.6656" y2="53.8698">
	<stop  offset="0.9192" style="stop-color:#E53373"/>
	<stop  offset="0.9194" style="stop-color:#EA5A8D"/>
	<stop  offset="0.9197" style="stop-color:#EF80A8"/>
	<stop  offset="0.92" style="stop-color:#F3A3C0"/>
	<stop  offset="0.9203" style="stop-color:#F7BFD3"/>
	<stop  offset="0.9207" style="stop-color:#FAD7E3"/>
	<stop  offset="0.9211" style="stop-color:#FCE9F0"/>
	<stop  offset="0.9216" style="stop-color:#FEF6F9"/>
	<stop  offset="0.9222" style="stop-color:#FFFDFE"/>
	<stop  offset="0.9237" style="stop-color:#FFFFFF"/>
	<stop  offset="0.9349" style="stop-color:#FFFFFF"/>
	<stop  offset="1" style="stop-color:#FFFFFF"/>
</linearGradient>
<path fill="url(#SVGID_2_)" d="M83.35,49.94h-1.58l-5.89,15.65c-0.07,0.29-0.21,0.57-0.42,0.84c-0.21,0.26-0.45,0.49-0.71,0.68
	c-0.27,0.19-0.55,0.34-0.86,0.44c-0.31,0.11-0.62,0.16-0.94,0.16h-2.21l6.52-17.77H75.8l-5.86,15.65c-0.19,0.61-0.57,1.12-1.15,1.51
	c-0.58,0.4-1.17,0.6-1.78,0.6h-2.24l7.4-20.01c0.19-0.55,0.58-1.04,1.17-1.47c0.59-0.43,1.18-0.65,1.79-0.65h14.08h0.1h0.09
	l-7.47,20.01c-0.23,0.61-0.63,1.12-1.21,1.51c-0.58,0.4-1.17,0.6-1.78,0.6h-2.18L83.35,49.94z"/>
<linearGradient id="SVGID_3_" gradientUnits="userSpaceOnUse" x1="87.5595" y1="83.201" x2="93.0526" y2="57.1092">
	<stop  offset="0.9192" style="stop-color:#E53373"/>
	<stop  offset="0.9194" style="stop-color:#EA5A8D"/>
	<stop  offset="0.9197" style="stop-color:#EF80A8"/>
	<stop  offset="0.92" style="stop-color:#F3A3C0"/>
	<stop  offset="0.9203" style="stop-color:#F7BFD3"/>
	<stop  offset="0.9207" style="stop-color:#FAD7E3"/>
	<stop  offset="0.9211" style="stop-color:#FCE9F0"/>
	<stop  offset="0.9216" style="stop-color:#FEF6F9"/>
	<stop  offset="0.9222" style="stop-color:#FFFDFE"/>
	<stop  offset="0.9237" style="stop-color:#FFFFFF"/>
	<stop  offset="0.9349" style="stop-color:#FFFFFF"/>
	<stop  offset="1" style="stop-color:#FFFFFF"/>
</linearGradient>
<path fill="url(#SVGID_3_)" d="M90.37,62.5l-0.34,0.88l6.7-0.03c0.02,0,0.03,0.01,0.02,0.03l-0.8,2.19
	c-0.23,0.61-0.64,1.13-1.23,1.54c-0.59,0.41-1.2,0.62-1.84,0.62h-8.81h-0.06l0.01-0.03l4.54-12.09c0.21-0.55,0.58-1.03,1.1-1.45
	c0.52-0.42,1.06-0.66,1.62-0.73c0.09-0.02,0.19-0.03,0.29-0.03h9.06l-0.01,0.03l-2.69,7.23c-0.22,0.57-0.63,1.01-1.23,1.33
	c-0.6,0.32-1.18,0.47-1.72,0.47L90.37,62.5z M91.74,58.84h2.49l0.41-1.07h-2.49L91.74,58.84z"/>
<polygon fill="none" points="102.52,63.42 105.93,63.42 108.03,57.77 104.65,57.77 "/>
<path fill="#4CB8AA" d="M116.86,45.71l0.02-0.09h-2.15c-0.61,0-1.21,0.22-1.8,0.66c-0.59,0.44-1.01,0.97-1.26,1.58l-2.04,5.55h-5.55
	h-0.16c-0.6,0.04-1.17,0.27-1.71,0.69c-0.54,0.42-0.91,0.93-1.12,1.52l-4.51,12.09l-0.01,0.03h9.94c0.61,0,1.21-0.2,1.79-0.62
	c0.58-0.41,0.98-0.92,1.18-1.53l7.4-19.88H116.86z M105.93,63.42h-3.41l2.13-5.65h3.38L105.93,63.42z M105.93,63.42h-3.41l2.13-5.65
	h3.38L105.93,63.42z"/>
<linearGradient id="SVGID_4_" gradientUnits="userSpaceOnUse" x1="109.5258" y1="87.8255" x2="115.0189" y2="61.7337">
	<stop  offset="0.9192" style="stop-color:#E53373"/>
	<stop  offset="0.9194" style="stop-color:#EA5A8D"/>
	<stop  offset="0.9197" style="stop-color:#EF80A8"/>
	<stop  offset="0.92" style="stop-color:#F3A3C0"/>
	<stop  offset="0.9203" style="stop-color:#F7BFD3"/>
	<stop  offset="0.9207" style="stop-color:#FAD7E3"/>
	<stop  offset="0.9211" style="stop-color:#FCE9F0"/>
	<stop  offset="0.9216" style="stop-color:#FEF6F9"/>
	<stop  offset="0.9222" style="stop-color:#FFFDFE"/>
	<stop  offset="0.9237" style="stop-color:#FFFFFF"/>
	<stop  offset="0.9349" style="stop-color:#FFFFFF"/>
	<stop  offset="1" style="stop-color:#FFFFFF"/>
</linearGradient>
<path fill="url(#SVGID_4_)" d="M109.8,67.71l4.54-12.09c0.22-0.59,0.63-1.1,1.22-1.55c0.59-0.44,1.19-0.66,1.8-0.66h2.15h0.03
	l-0.01,0.03l-4.56,12.15c-0.25,0.61-0.66,1.12-1.22,1.53c-0.56,0.41-1.15,0.62-1.76,0.62h-2.15
	C109.82,67.74,109.8,67.73,109.8,67.71z M117.02,47.7c0.31-0.59,0.71-1.05,1.19-1.37c0.49-0.33,1.07-0.54,1.76-0.63
	c0.69-0.09,1.49-0.12,2.4-0.08l-0.02,0.09l-1.05,2.71c-0.2,0.59-0.57,0.99-1.09,1.22c-0.53,0.22-1.09,0.33-1.7,0.33h-2.15
	l-0.02-0.03C116.48,49.03,116.71,48.29,117.02,47.7z"/>
<linearGradient id="SVGID_5_" gradientUnits="userSpaceOnUse" x1="117.3742" y1="89.4778" x2="122.8672" y2="63.3859">
	<stop  offset="0.9192" style="stop-color:#E53373"/>
	<stop  offset="0.9194" style="stop-color:#EA5A8D"/>
	<stop  offset="0.9197" style="stop-color:#EF80A8"/>
	<stop  offset="0.92" style="stop-color:#F3A3C0"/>
	<stop  offset="0.9203" style="stop-color:#F7BFD3"/>
	<stop  offset="0.9207" style="stop-color:#FAD7E3"/>
	<stop  offset="0.9211" style="stop-color:#FCE9F0"/>
	<stop  offset="0.9216" style="stop-color:#FEF6F9"/>
	<stop  offset="0.9222" style="stop-color:#FFFDFE"/>
	<stop  offset="0.9237" style="stop-color:#FFFFFF"/>
	<stop  offset="0.9349" style="stop-color:#FFFFFF"/>
	<stop  offset="1" style="stop-color:#FFFFFF"/>
</linearGradient>
<path fill="url(#SVGID_5_)" d="M125.39,58.68l0.37-0.92h-6.69l0.01-0.06l0.81-2.1c0.21-0.61,0.6-1.12,1.19-1.55
	c0.59-0.43,1.17-0.64,1.76-0.64h8.9l-0.01,0.03l-4.56,12.15c-0.19,0.55-0.54,1.03-1.05,1.44c-0.51,0.41-1.04,0.65-1.6,0.71h-0.06
	h-0.28h-8.55h-0.44c-0.02,0-0.03-0.01-0.02-0.03c0.45-1.2,0.9-2.4,1.35-3.61c0.45-1.21,0.9-2.41,1.38-3.61
	c0.21-0.55,0.62-0.98,1.21-1.31c0.59-0.33,1.15-0.49,1.68-0.49H125.39z M124.07,62.25h-2.49l-0.43,1.14l2.5-0.03L124.07,62.25z"/>
<linearGradient id="SVGID_6_" gradientUnits="userSpaceOnUse" x1="143.5797" y1="29.9226" x2="138.636" y2="57.3877">
	<stop  offset="0.9192" style="stop-color:#E53373"/>
	<stop  offset="0.9194" style="stop-color:#EA5A8D"/>
	<stop  offset="0.9197" style="stop-color:#EF80A8"/>
	<stop  offset="0.92" style="stop-color:#F3A3C0"/>
	<stop  offset="0.9203" style="stop-color:#F7BFD3"/>
	<stop  offset="0.9207" style="stop-color:#FAD7E3"/>
	<stop  offset="0.9211" style="stop-color:#FCE9F0"/>
	<stop  offset="0.9216" style="stop-color:#FEF6F9"/>
	<stop  offset="0.9222" style="stop-color:#FFFDFE"/>
	<stop  offset="0.9237" style="stop-color:#FFFFFF"/>
	<stop  offset="0.9349" style="stop-color:#FFFFFF"/>
	<stop  offset="1" style="stop-color:#FFFFFF"/>
</linearGradient>
<path fill="url(#SVGID_6_)" d="M141.38,45.58h7.23h0.1l-0.72,2.11c-0.25,0.61-0.67,1.14-1.26,1.58c-0.59,0.44-1.19,0.66-1.8,0.66
	h-5.14l-4.95,13.41h7.26l-0.02,0.06l-0.83,2.18c-0.21,0.61-0.6,1.12-1.16,1.51c-0.57,0.4-1.16,0.6-1.77,0.6h-9.47l7.37-20.01
	c0.11-0.27,0.27-0.54,0.49-0.79c0.22-0.25,0.47-0.48,0.75-0.68c0.28-0.2,0.57-0.36,0.89-0.47c0.31-0.12,0.63-0.17,0.94-0.17H141.38z
	"/>
<linearGradient id="SVGID_7_" gradientUnits="userSpaceOnUse" x1="153.5726" y1="31.7214" x2="148.6289" y2="59.1864">
	<stop  offset="0.9192" style="stop-color:#E53373"/>
	<stop  offset="0.9194" style="stop-color:#EA5A8D"/>
	<stop  offset="0.9197" style="stop-color:#EF80A8"/>
	<stop  offset="0.92" style="stop-color:#F3A3C0"/>
	<stop  offset="0.9203" style="stop-color:#F7BFD3"/>
	<stop  offset="0.9207" style="stop-color:#FAD7E3"/>
	<stop  offset="0.9211" style="stop-color:#FCE9F0"/>
	<stop  offset="0.9216" style="stop-color:#FEF6F9"/>
	<stop  offset="0.9222" style="stop-color:#FFFDFE"/>
	<stop  offset="0.9237" style="stop-color:#FFFFFF"/>
	<stop  offset="0.9349" style="stop-color:#FFFFFF"/>
	<stop  offset="1" style="stop-color:#FFFFFF"/>
</linearGradient>
<path fill="url(#SVGID_7_)" d="M142.82,67.71l7.3-19.85c0.25-0.61,0.67-1.14,1.26-1.58c0.59-0.44,1.19-0.66,1.8-0.66h2.15
	c0.02,0.02,0.02,0.04,0.02,0.06l-0.01,0.03l-7.37,19.88c-0.23,0.61-0.63,1.12-1.2,1.53c-0.57,0.41-1.17,0.62-1.8,0.62h-2.15
	L142.82,67.71z"/>
<linearGradient id="SVGID_8_" gradientUnits="userSpaceOnUse" x1="162.9558" y1="33.4103" x2="158.0121" y2="60.8754">
	<stop  offset="0.9192" style="stop-color:#E53373"/>
	<stop  offset="0.9194" style="stop-color:#EA5A8D"/>
	<stop  offset="0.9197" style="stop-color:#EF80A8"/>
	<stop  offset="0.92" style="stop-color:#F3A3C0"/>
	<stop  offset="0.9203" style="stop-color:#F7BFD3"/>
	<stop  offset="0.9207" style="stop-color:#FAD7E3"/>
	<stop  offset="0.9211" style="stop-color:#FCE9F0"/>
	<stop  offset="0.9216" style="stop-color:#FEF6F9"/>
	<stop  offset="0.9222" style="stop-color:#FFFDFE"/>
	<stop  offset="0.9237" style="stop-color:#FFFFFF"/>
	<stop  offset="0.9349" style="stop-color:#FFFFFF"/>
	<stop  offset="1" style="stop-color:#FFFFFF"/>
</linearGradient>
<path fill="url(#SVGID_8_)" d="M156.11,62.5l-0.34,0.88l6.7-0.03c0.02,0,0.03,0.01,0.02,0.03l-0.8,2.19
	c-0.23,0.61-0.64,1.13-1.23,1.54c-0.59,0.41-1.2,0.62-1.84,0.62h-8.81h-0.06l0.01-0.03l4.54-12.09c0.21-0.55,0.58-1.03,1.1-1.45
	c0.52-0.42,1.06-0.66,1.62-0.73c0.09-0.02,0.19-0.03,0.29-0.03h9.06l-0.01,0.03l-2.69,7.23c-0.22,0.57-0.63,1.01-1.23,1.33
	c-0.6,0.32-1.18,0.47-1.72,0.47L156.11,62.5z M157.48,58.84h2.49l0.41-1.07h-2.49L157.48,58.84z"/>
<linearGradient id="SVGID_9_" gradientUnits="userSpaceOnUse" x1="175.0477" y1="35.5869" x2="170.104" y2="63.052">
	<stop  offset="0.9192" style="stop-color:#E53373"/>
	<stop  offset="0.9194" style="stop-color:#EA5A8D"/>
	<stop  offset="0.9197" style="stop-color:#EF80A8"/>
	<stop  offset="0.92" style="stop-color:#F3A3C0"/>
	<stop  offset="0.9203" style="stop-color:#F7BFD3"/>
	<stop  offset="0.9207" style="stop-color:#FAD7E3"/>
	<stop  offset="0.9211" style="stop-color:#FCE9F0"/>
	<stop  offset="0.9216" style="stop-color:#FEF6F9"/>
	<stop  offset="0.9222" style="stop-color:#FFFDFE"/>
	<stop  offset="0.9237" style="stop-color:#FFFFFF"/>
	<stop  offset="0.9349" style="stop-color:#FFFFFF"/>
	<stop  offset="1" style="stop-color:#FFFFFF"/>
</linearGradient>
<path fill="url(#SVGID_9_)" d="M172.48,58.68l0.37-0.92h-6.69l0.01-0.06l0.81-2.1c0.21-0.61,0.6-1.12,1.19-1.55
	c0.59-0.43,1.17-0.64,1.76-0.64h8.9l-0.01,0.03l-4.56,12.15c-0.19,0.55-0.54,1.03-1.05,1.44c-0.51,0.41-1.04,0.65-1.6,0.71h-0.06
	h-0.28h-8.55h-0.44c-0.02,0-0.03-0.01-0.02-0.03c0.45-1.2,0.9-2.4,1.35-3.61c0.45-1.21,0.9-2.41,1.38-3.61
	c0.21-0.55,0.62-0.98,1.21-1.31c0.59-0.33,1.15-0.49,1.68-0.49H172.48z M171.16,62.25h-2.49l-0.43,1.14l2.5-0.03L171.16,62.25z"/>
<linearGradient id="SVGID_10_" gradientUnits="userSpaceOnUse" x1="187.3054" y1="37.7933" x2="182.3617" y2="65.2583">
	<stop  offset="0.9192" style="stop-color:#E53373"/>
	<stop  offset="0.9194" style="stop-color:#EA5A8D"/>
	<stop  offset="0.9197" style="stop-color:#EF80A8"/>
	<stop  offset="0.92" style="stop-color:#F3A3C0"/>
	<stop  offset="0.9203" style="stop-color:#F7BFD3"/>
	<stop  offset="0.9207" style="stop-color:#FAD7E3"/>
	<stop  offset="0.9211" style="stop-color:#FCE9F0"/>
	<stop  offset="0.9216" style="stop-color:#FEF6F9"/>
	<stop  offset="0.9222" style="stop-color:#FFFDFE"/>
	<stop  offset="0.9237" style="stop-color:#FFFFFF"/>
	<stop  offset="0.9349" style="stop-color:#FFFFFF"/>
	<stop  offset="1" style="stop-color:#FFFFFF"/>
</linearGradient>
<path fill="url(#SVGID_10_)" d="M185.61,57.77h-2.68l-3,7.83c-0.21,0.61-0.6,1.12-1.18,1.53c-0.58,0.41-1.19,0.61-1.82,0.61h-2.15
	l0.01-0.03l4.54-12.09c0.21-0.61,0.59-1.12,1.15-1.53c0.56-0.41,1.15-0.64,1.77-0.68h0.06h1.23h7.99h0.09l-0.01,0.03l-4.56,12.15
	c-0.23,0.61-0.63,1.12-1.2,1.53c-0.57,0.41-1.16,0.62-1.77,0.62h-2.18l0.01-0.03L185.61,57.77z"/>
<linearGradient id="SVGID_11_" gradientUnits="userSpaceOnUse" x1="199.2742" y1="39.9477" x2="194.3305" y2="67.4127">
	<stop  offset="0.9192" style="stop-color:#E53373"/>
	<stop  offset="0.9194" style="stop-color:#EA5A8D"/>
	<stop  offset="0.9197" style="stop-color:#EF80A8"/>
	<stop  offset="0.92" style="stop-color:#F3A3C0"/>
	<stop  offset="0.9203" style="stop-color:#F7BFD3"/>
	<stop  offset="0.9207" style="stop-color:#FAD7E3"/>
	<stop  offset="0.9211" style="stop-color:#FCE9F0"/>
	<stop  offset="0.9216" style="stop-color:#FEF6F9"/>
	<stop  offset="0.9222" style="stop-color:#FFFDFE"/>
	<stop  offset="0.9237" style="stop-color:#FFFFFF"/>
	<stop  offset="0.9349" style="stop-color:#FFFFFF"/>
	<stop  offset="1" style="stop-color:#FFFFFF"/>
</linearGradient>
<path fill="url(#SVGID_11_)" d="M193.61,62.5l-0.34,0.88l6.7-0.03c0.02,0,0.03,0.01,0.02,0.03l-0.8,2.19
	c-0.23,0.61-0.64,1.13-1.23,1.54c-0.59,0.41-1.2,0.62-1.84,0.62h-8.81h-0.06l0.01-0.03l4.54-12.09c0.21-0.55,0.58-1.03,1.1-1.45
	c0.52-0.42,1.06-0.66,1.62-0.73c0.09-0.02,0.19-0.03,0.29-0.03h9.06l-0.01,0.03l-2.69,7.23c-0.22,0.57-0.63,1.01-1.23,1.33
	c-0.6,0.32-1.18,0.47-1.72,0.47L193.61,62.5z M194.98,58.84h2.49l0.41-1.07h-2.49L194.98,58.84z"/>
<linearGradient id="SVGID_12_" gradientUnits="userSpaceOnUse" x1="210.5388" y1="41.9753" x2="205.5951" y2="69.4404">
	<stop  offset="0.9192" style="stop-color:#E53373"/>
	<stop  offset="0.9194" style="stop-color:#EA5A8D"/>
	<stop  offset="0.9197" style="stop-color:#EF80A8"/>
	<stop  offset="0.92" style="stop-color:#F3A3C0"/>
	<stop  offset="0.9203" style="stop-color:#F7BFD3"/>
	<stop  offset="0.9207" style="stop-color:#FAD7E3"/>
	<stop  offset="0.9211" style="stop-color:#FCE9F0"/>
	<stop  offset="0.9216" style="stop-color:#FEF6F9"/>
	<stop  offset="0.9222" style="stop-color:#FFFDFE"/>
	<stop  offset="0.9237" style="stop-color:#FFFFFF"/>
	<stop  offset="0.9349" style="stop-color:#FFFFFF"/>
	<stop  offset="1" style="stop-color:#FFFFFF"/>
</linearGradient>
<path fill="url(#SVGID_12_)" d="M208.27,57.77l-2.96,7.83c-0.23,0.61-0.63,1.12-1.21,1.53c-0.58,0.41-1.17,0.61-1.76,0.61h-2.15
	h-0.09l0.01-0.03l4.54-12.09c0.2-0.59,0.58-1.09,1.13-1.52c0.55-0.42,1.12-0.65,1.7-0.69h0.22h6.56c0.02,0,0.03,0.01,0.02,0.03
	l-0.79,2.13c-0.23,0.61-0.64,1.13-1.22,1.56c-0.59,0.42-1.17,0.64-1.76,0.64H208.27z"/>
</svg>
