<?xml version="1.0" encoding="utf-8"?>
<!-- Generator: Adobe Illustrator 23.1.1, SVG Export Plug-In . SVG Version: 6.00 Build 0)  -->
<svg version="1.0" id="Laag_1" xmlns="http://www.w3.org/2000/svg" xmlns:xlink="http://www.w3.org/1999/xlink" x="0px" y="0px"
	 viewBox="0 0 222 96" enable-background="new 0 0 222 96" xml:space="preserve">
<path d="M218.55,50.62l-1.57-1.96h-6.28h-3.19h-9.06h-3.41h-9.38h-3.36h-9.1h-3.03h-10.03l0.27-0.73l0.11-0.28l0.07-0.32
	c0.38-1.53,0.05-3.13-0.89-4.39l-1.55-2.08h-1.99l0.01-0.03h-16.67c-0.93,0-1.85,0.17-2.74,0.5c-0.74,0.28-1.45,0.65-2.1,1.12
	c-0.61,0.44-1.16,0.94-1.65,1.51c-0.6,0.7-1.07,1.46-1.38,2.28l-0.89,2.42h-3.58l0.38-0.98l1.55-6.52l-5.43-0.25l0.01-0.04h-1.05
	c-0.28-0.01-0.56-0.02-0.82-0.02c-0.21,0-0.42,0.01-0.62,0.02h-6.2c-1.73,0-3.42,0.59-4.9,1.7c-1.34,1.01-2.33,2.27-2.94,3.76
	l-0.04,0.09l-0.83,2.26h-2.29h-9.81l2.92-7.83H78.14c-0.1-0.47-0.21-0.93-0.33-1.39c-0.88-3.39-2.24-6.65-4.03-9.7
	c-6.47-10.97-18.11-18-30.73-18.69l3.35-8.99H35.31c-2.11,0-4.12,0.69-5.98,2.06c-1.65,1.21-2.89,2.68-3.67,4.36l-0.09,0.2
	l-2.51,6.82C10.78,22.09,2.97,35.02,2.97,49.04c0,5.54,1.18,10.9,3.5,15.93c1.04,2.24,2.3,4.4,3.75,6.4
	c4.74,6.53,11.49,11.38,19.09,13.85l-3.33,8.92h11.09c2.06,0,4.02-0.64,5.84-1.89c1.77-1.22,3.07-2.82,3.87-4.75l0.03-0.08
	l0.31-0.83c9.07-1.46,17.27-6.16,23.16-13.26h7.44l-0.01,0.03h12.56h2.84h13.63c0.27,0,0.54-0.02,0.81-0.05l0.04,0.05h4.64
	c0.22,0,0.45-0.01,0.67-0.03l0.02,0.03h12.12l0.28-0.03h11.18l-0.01,0.03h6.94h1.74h13.67c0.37,0,0.74-0.03,1.1-0.08l0.07,0.08h8.51
	h3.61H181h3.32h9.53h2.5h6.22c1.65,0,3.29-0.54,4.74-1.56c1.42-1,2.48-2.36,3.07-3.92l1.75-4.62c1.2-0.22,2.36-0.73,3.42-1.5
	c1.4-1.01,2.45-2.37,3.03-3.95l0.91-2.45l0.63-2.78L218.55,50.62z"/>
<g>
	<path fill="#1D1D1B" d="M72.02,76.51h2.33h0.03l-0.07,0.68c-0.03,0.2-0.13,0.37-0.28,0.51c-0.16,0.14-0.33,0.21-0.53,0.21h-1.66
		l-0.57,4.32h2.34v0.02l-0.1,0.7c-0.02,0.2-0.11,0.36-0.26,0.49c-0.15,0.13-0.33,0.19-0.52,0.19h-3.05l0.84-6.45
		c0.01-0.09,0.04-0.17,0.1-0.25c0.05-0.08,0.11-0.15,0.19-0.22c0.08-0.06,0.16-0.12,0.25-0.15c0.09-0.04,0.19-0.06,0.29-0.06H72.02z
		"/>
	<path fill="#1D1D1B" d="M74.59,83.64l0.83-6.4c0.03-0.2,0.13-0.37,0.29-0.51c0.16-0.14,0.33-0.21,0.53-0.21h0.69
		c0.01,0.01,0.01,0.01,0.01,0.02v0.01l-0.85,6.41c-0.03,0.2-0.12,0.36-0.27,0.49c-0.15,0.13-0.33,0.2-0.53,0.2h-0.69V83.64z"/>
	<path fill="#1D1D1B" d="M78.88,81.96l-0.04,0.28l2.16-0.01c0.01,0,0.01,0,0.01,0.01l-0.09,0.71c-0.03,0.2-0.12,0.36-0.28,0.5
		c-0.16,0.13-0.34,0.2-0.54,0.2h-2.84h-0.02v-0.01l0.54-3.9c0.03-0.18,0.11-0.33,0.24-0.47c0.14-0.13,0.29-0.21,0.47-0.23
		c0.03-0.01,0.06-0.01,0.09-0.01h2.92v0.01l-0.32,2.33c-0.03,0.18-0.13,0.33-0.29,0.43c-0.17,0.1-0.34,0.15-0.52,0.15L78.88,81.96z
		 M79.04,80.78h0.8l0.05-0.35h-0.8L79.04,80.78z"/>
	<path fill="#1D1D1B" d="M84.27,80.73l0.05-0.29h-2.16v-0.02l0.1-0.68c0.02-0.2,0.11-0.36,0.26-0.5c0.16-0.14,0.33-0.21,0.52-0.21
		h2.87v0.01l-0.54,3.92c-0.02,0.18-0.1,0.33-0.23,0.46c-0.13,0.13-0.29,0.21-0.46,0.23h-0.02h-0.09h-2.76h-0.14
		c-0.01,0-0.01,0-0.01-0.01c0.05-0.39,0.11-0.77,0.16-1.16c0.05-0.39,0.11-0.78,0.17-1.17c0.03-0.18,0.12-0.32,0.29-0.42
		s0.33-0.16,0.5-0.16H84.27z M84.12,81.88h-0.8l-0.05,0.37l0.8-0.01L84.12,81.88z"/>
	<path fill="#1D1D1B" d="M88.83,80.43h-0.86l-0.37,2.52c-0.02,0.2-0.11,0.36-0.26,0.49c-0.16,0.13-0.33,0.2-0.54,0.2h-0.69v-0.01
		l0.54-3.9c0.02-0.2,0.11-0.36,0.25-0.49c0.15-0.13,0.32-0.21,0.52-0.22h0.02h0.4h2.57h0.03v0.01l-0.54,3.92
		c-0.03,0.2-0.12,0.36-0.27,0.49c-0.15,0.13-0.33,0.2-0.52,0.2h-0.7v-0.01L88.83,80.43z"/>
	<path fill="#1D1D1B" d="M91.52,82.24c0.19,0,0.35,0.06,0.49,0.18s0.21,0.27,0.22,0.46v0.03v0.01v0.06
		c-0.01,0.13-0.03,0.26-0.07,0.4c-0.04,0.14-0.09,0.27-0.17,0.39c-0.08,0.12-0.17,0.22-0.29,0.3s-0.28,0.13-0.46,0.15l0.08-0.64
		c-0.14-0.05-0.25-0.13-0.33-0.25c-0.09-0.12-0.13-0.26-0.13-0.41c0-0.18,0.07-0.34,0.2-0.48C91.19,82.31,91.34,82.24,91.52,82.24z"
		/>
	<path fill="#1D1D1B" d="M97.31,83.64l0.82-6.45c0.02-0.09,0.06-0.17,0.11-0.25s0.11-0.15,0.18-0.22s0.15-0.12,0.24-0.15
		c0.09-0.04,0.18-0.06,0.28-0.06h3.51l-0.83,6.45c-0.03,0.2-0.13,0.36-0.28,0.49c-0.15,0.13-0.33,0.19-0.52,0.19H97.31z
		 M98.88,82.23h1.38l0.6-4.32h-1.4L98.88,82.23z"/>
	<path fill="#1D1D1B" d="M104.4,83.65l-0.13,1.06c-0.02,0.2-0.11,0.36-0.27,0.49s-0.33,0.2-0.52,0.2h-0.71l0.76-5.66
		c0.02-0.18,0.09-0.33,0.22-0.47c0.13-0.13,0.29-0.21,0.47-0.23c0.01-0.01,0.04-0.01,0.09-0.01h2.94h0.01v0.01l-0.53,3.92
		c-0.02,0.2-0.11,0.36-0.27,0.49c-0.16,0.13-0.34,0.2-0.53,0.2H104.4z M104.59,82.24h0.81l0.24-1.81h-0.8L104.59,82.24z"/>
	<path fill="#1D1D1B" d="M108.65,80.41h-0.46h-0.01l0.2-1.39h0.01c0.01-0.01,0.01-0.01,0.02-0.01h0.42l0.05-0.5
		c0.03-0.19,0.12-0.35,0.28-0.49s0.34-0.21,0.53-0.21h0.69h0.01v0.01l-0.15,1.19h1.03v0.01l-0.09,0.69c-0.02,0.2-0.11,0.37-0.26,0.5
		c-0.16,0.14-0.33,0.21-0.53,0.23h-0.33l-0.25,1.79l1.26-0.01c0.01,0,0.01,0,0.01,0.01L111,82.93c-0.03,0.2-0.13,0.36-0.28,0.5
		c-0.15,0.13-0.32,0.2-0.51,0.2h-1.97h-0.01l0.01-0.01L108.65,80.41z"/>
	<path fill="#1D1D1B" d="M111.76,83.64l0.54-3.9c0.03-0.19,0.12-0.36,0.27-0.5s0.33-0.21,0.53-0.21h0.69h0.01v0.01l-0.54,3.92
		c-0.03,0.2-0.12,0.36-0.27,0.49c-0.15,0.13-0.32,0.2-0.52,0.2h-0.69C111.77,83.65,111.76,83.64,111.76,83.64z M112.55,77.19
		c0.05-0.19,0.15-0.34,0.28-0.44c0.13-0.1,0.3-0.17,0.52-0.2s0.47-0.04,0.77-0.03v0.03l-0.13,0.88c-0.02,0.19-0.11,0.32-0.26,0.39
		s-0.33,0.11-0.52,0.11h-0.69l-0.01-0.01C112.48,77.62,112.5,77.38,112.55,77.19z"/>
	<path fill="#1D1D1B" d="M117.94,80.43h-0.4l-0.34,2.52c-0.02,0.2-0.11,0.36-0.27,0.49s-0.34,0.2-0.54,0.2h-0.69v-0.01l0.45-3.2
		h-0.37l-0.35,2.52c-0.02,0.2-0.11,0.36-0.27,0.49s-0.33,0.2-0.51,0.2h-0.7v-0.01l0.51-3.9c0.03-0.19,0.12-0.35,0.26-0.49
		c0.14-0.13,0.3-0.21,0.48-0.22h0.06h4.25h0.02v0.01L119,82.96c-0.03,0.2-0.12,0.36-0.27,0.49c-0.16,0.13-0.33,0.2-0.52,0.2h-0.71
		h-0.01v-0.01L117.94,80.43z"/>
	<path fill="#1D1D1B" d="M119.63,83.64l0.54-3.9c0.03-0.19,0.12-0.36,0.27-0.5s0.33-0.21,0.53-0.21h0.69h0.01v0.01l-0.54,3.92
		c-0.03,0.2-0.12,0.36-0.27,0.49c-0.15,0.13-0.32,0.2-0.52,0.2h-0.69C119.64,83.65,119.63,83.64,119.63,83.64z M120.42,77.19
		c0.05-0.19,0.15-0.34,0.28-0.44c0.13-0.1,0.3-0.17,0.52-0.2s0.47-0.04,0.77-0.03v0.03l-0.13,0.88c-0.02,0.19-0.11,0.32-0.26,0.39
		s-0.33,0.11-0.52,0.11h-0.69l-0.01-0.01C120.35,77.62,120.37,77.38,120.42,77.19z"/>
	<path fill="#1D1D1B" d="M123.93,80.44l-0.83-0.02c-0.2,0-0.37-0.07-0.53-0.2s-0.25-0.3-0.29-0.5l-0.08-0.69
		c0-0.01,0-0.01,0.01-0.01h0.01c0.69,0.01,1.38,0.01,2.06,0.01s1.37,0,2.05,0h0.01v0.01c-0.39,0.54-0.77,1.08-1.15,1.61
		c-0.38,0.53-0.77,1.06-1.15,1.6h1.92c0.01,0,0.01,0,0.01,0.01l-0.08,0.7c-0.03,0.2-0.13,0.36-0.29,0.49
		c-0.16,0.13-0.33,0.2-0.53,0.2h-3.46v-0.01c0.38-0.54,0.76-1.08,1.15-1.61C123.16,81.5,123.55,80.97,123.93,80.44z"/>
	<path fill="#1D1D1B" d="M128.25,81.96l-0.04,0.28l2.16-0.01c0.01,0,0.01,0,0.01,0.01l-0.09,0.71c-0.03,0.2-0.12,0.36-0.28,0.5
		s-0.34,0.2-0.54,0.2h-2.84h-0.02v-0.01l0.54-3.9c0.03-0.18,0.11-0.33,0.24-0.47c0.14-0.13,0.29-0.21,0.47-0.23
		c0.03-0.01,0.06-0.01,0.09-0.01h2.92v0.01l-0.32,2.33c-0.03,0.18-0.12,0.33-0.29,0.43c-0.17,0.1-0.34,0.15-0.52,0.15L128.25,81.96z
		 M128.41,80.78h0.8l0.05-0.35h-0.8L128.41,80.78z"/>
	<path fill="#1D1D1B" d="M131.99,82.24c0.19,0,0.35,0.06,0.49,0.18s0.21,0.27,0.22,0.46v0.03v0.01v0.06
		c-0.01,0.13-0.03,0.26-0.07,0.4c-0.04,0.14-0.09,0.27-0.17,0.39c-0.08,0.12-0.17,0.22-0.29,0.3s-0.28,0.13-0.46,0.15l0.08-0.64
		c-0.14-0.05-0.25-0.13-0.33-0.25c-0.09-0.12-0.13-0.26-0.13-0.41c0-0.18,0.07-0.34,0.2-0.48
		C131.66,82.31,131.81,82.24,131.99,82.24z"/>
	<path fill="#1D1D1B" d="M142.12,79.02h0.65v0.04l-0.49,3.89c-0.03,0.2-0.13,0.36-0.29,0.49c-0.16,0.13-0.34,0.19-0.53,0.19h-3.71
		h-0.04l0.86-6.45c0.02-0.09,0.06-0.17,0.11-0.25c0.05-0.08,0.11-0.15,0.18-0.22s0.15-0.12,0.24-0.15s0.18-0.06,0.28-0.06h3.51
		l-0.29,1.88c-0.01,0.14-0.07,0.26-0.16,0.38S142.23,78.96,142.12,79.02z M139.33,82.23h1.58l0.24-1.81h-1.59L139.33,82.23z
		 M141.09,79.02l0.16-1.11h-1.35l-0.16,1.11H141.09z"/>
	<path fill="#1D1D1B" d="M145.98,80.73l0.05-0.29h-2.16v-0.02l0.1-0.68c0.02-0.2,0.11-0.36,0.26-0.5c0.16-0.14,0.33-0.21,0.52-0.21
		h2.87v0.01l-0.54,3.92c-0.02,0.18-0.1,0.33-0.23,0.46c-0.13,0.13-0.29,0.21-0.46,0.23h-0.02h-0.09h-2.76h-0.14
		c-0.01,0-0.01,0-0.01-0.01c0.05-0.39,0.11-0.77,0.16-1.16c0.05-0.39,0.11-0.78,0.17-1.17c0.03-0.18,0.12-0.32,0.29-0.42
		s0.33-0.16,0.5-0.16H145.98z M145.83,81.88h-0.8l-0.05,0.37l0.8-0.01L145.83,81.88z"/>
	<path fill="#1D1D1B" d="M149.7,80.43l-0.24,1.81l2.16-0.01c0.01,0,0.01,0,0.01,0.01l-0.08,0.71c-0.03,0.2-0.13,0.36-0.28,0.5
		s-0.33,0.2-0.52,0.2h-2.87c-0.01,0-0.01,0-0.01-0.01l0.54-3.9c0.03-0.19,0.11-0.35,0.25-0.49c0.14-0.13,0.3-0.21,0.48-0.22h0.05
		h2.81H152v0.01l-0.08,0.69c-0.03,0.2-0.13,0.37-0.29,0.5s-0.34,0.21-0.53,0.21H149.7z"/>
	<path fill="#1D1D1B" d="M154.28,81.03l0.86-1.31c0.05-0.07,0.1-0.14,0.15-0.22c0.05-0.08,0.11-0.16,0.17-0.22
		c0.06-0.07,0.13-0.12,0.21-0.17c0.07-0.05,0.16-0.07,0.25-0.07h0.94h0.02v0.01l-1.35,2l0.69,1.89c0.07,0.19,0.06,0.36-0.01,0.5
		c-0.08,0.14-0.22,0.21-0.43,0.21h-0.69h-0.02l-0.44-1.24l-0.38,0.55c-0.05,0.07-0.11,0.14-0.16,0.22
		c-0.05,0.08-0.11,0.16-0.17,0.22c-0.06,0.07-0.13,0.12-0.21,0.17c-0.08,0.05-0.17,0.07-0.27,0.07h-0.95v-0.01l0.85-6.4
		c0.03-0.19,0.12-0.36,0.27-0.5s0.33-0.22,0.53-0.22h0.7v0.03L154.28,81.03z"/>
	<path fill="#1D1D1B" d="M158.9,82.24h0.87l0.36-2.5c0.01-0.2,0.1-0.36,0.25-0.5s0.33-0.21,0.53-0.21h0.69v0.01l-0.52,3.92
		c-0.03,0.2-0.12,0.36-0.27,0.49c-0.15,0.13-0.33,0.2-0.53,0.2h-2.98h-0.01v-0.01l0.53-3.9c0.01-0.09,0.04-0.19,0.09-0.27
		c0.05-0.09,0.11-0.16,0.18-0.23c0.07-0.06,0.15-0.12,0.24-0.15c0.09-0.04,0.19-0.06,0.29-0.06h0.69v0.01L158.9,82.24z"/>
	<path fill="#1D1D1B" d="M163.3,83.65l-0.13,1.06c-0.02,0.2-0.11,0.36-0.27,0.49s-0.33,0.2-0.52,0.2h-0.71l0.76-5.66
		c0.02-0.18,0.09-0.33,0.22-0.47c0.13-0.13,0.28-0.21,0.47-0.23c0.01-0.01,0.04-0.01,0.09-0.01h2.94h0.01v0.01l-0.53,3.92
		c-0.02,0.2-0.11,0.36-0.27,0.49c-0.16,0.13-0.34,0.2-0.53,0.2H163.3z M163.5,82.24h0.81l0.24-1.81h-0.8L163.5,82.24z"/>
	<path fill="#1D1D1B" d="M172.78,79l-0.67-1.77c-0.07-0.19-0.06-0.36,0.02-0.5c0.08-0.14,0.23-0.21,0.45-0.21h0.67h2.67v0.04
		l-0.08,0.64c-0.03,0.2-0.12,0.36-0.28,0.5s-0.33,0.2-0.52,0.2h-1.23l0.4,1.1l0.29,0.71c0.03-0.2,0.12-0.36,0.27-0.5
		c0.15-0.14,0.33-0.21,0.52-0.21h0.7l-0.46,3.49l0.17,0.44c0.05,0.18,0.04,0.35-0.04,0.49c-0.08,0.15-0.22,0.22-0.44,0.22h-1.25
		h-0.03h-2.25h-0.07h-0.69l0.5-3.93c0.03-0.2,0.13-0.36,0.28-0.5c0.16-0.14,0.33-0.21,0.53-0.21H172.78L172.78,79z M174.01,82.23
		l-0.68-1.84h-0.56l-0.25,1.84H174.01z"/>
	<path fill="#1D1D1B" d="M183.44,76.51h2.33h0.03l-0.07,0.68c-0.03,0.2-0.13,0.37-0.28,0.51c-0.16,0.14-0.33,0.21-0.53,0.21h-1.66
		l-0.57,4.32h2.34v0.02l-0.1,0.7c-0.02,0.2-0.11,0.36-0.26,0.49c-0.15,0.13-0.33,0.19-0.52,0.19h-3.05l0.84-6.45
		c0.01-0.09,0.04-0.17,0.1-0.25c0.05-0.08,0.11-0.15,0.19-0.22c0.08-0.06,0.16-0.12,0.25-0.15c0.09-0.04,0.19-0.06,0.29-0.06H183.44
		z"/>
	<path fill="#1D1D1B" d="M186,83.64l0.83-6.4c0.03-0.2,0.13-0.37,0.29-0.51c0.16-0.14,0.33-0.21,0.53-0.21h0.69
		c0.01,0.01,0.01,0.01,0.01,0.02v0.01l-0.85,6.41c-0.03,0.2-0.12,0.36-0.27,0.49c-0.15,0.13-0.33,0.2-0.53,0.2H186V83.64z"/>
	<path fill="#1D1D1B" d="M188.68,83.64l0.54-3.9c0.03-0.19,0.11-0.35,0.25-0.49c0.14-0.13,0.3-0.21,0.48-0.22h0.07H193h0.03v0.01
		l-0.54,3.92c-0.03,0.2-0.13,0.36-0.28,0.49c-0.15,0.13-0.33,0.2-0.52,0.2h-3h-0.01V83.64z M190.29,82.24h0.87l0.26-1.81h-0.91
		L190.29,82.24z"/>
	<path fill="#1D1D1B" d="M196,80.43h-0.86l-0.37,2.52c-0.02,0.2-0.11,0.36-0.26,0.49s-0.34,0.2-0.54,0.2h-0.69v-0.01l0.54-3.9
		c0.02-0.2,0.1-0.36,0.25-0.49c0.15-0.13,0.32-0.21,0.52-0.22h0.02h0.4h2.57h0.03v0.01l-0.54,3.92c-0.03,0.2-0.12,0.36-0.27,0.49
		c-0.15,0.13-0.33,0.2-0.52,0.2h-0.7v-0.01L196,80.43z"/>
	<path fill="#1D1D1B" d="M199.35,81.96l-0.04,0.28l2.16-0.01c0.01,0,0.01,0,0.01,0.01l-0.09,0.71c-0.03,0.2-0.12,0.36-0.28,0.5
		s-0.34,0.2-0.54,0.2h-2.84h-0.02v-0.01l0.54-3.9c0.03-0.18,0.11-0.33,0.24-0.47c0.14-0.13,0.29-0.21,0.47-0.23
		c0.03-0.01,0.06-0.01,0.09-0.01h2.92v0.01l-0.32,2.33c-0.03,0.18-0.12,0.33-0.29,0.43c-0.17,0.1-0.34,0.15-0.52,0.15L199.35,81.96z
		 M199.51,80.78h0.8l0.05-0.35h-0.8L199.51,80.78z"/>
</g>
<polygon fill="#4CB8AA" points="63.79,46.16 66.28,39.34 59.15,39.34 56.66,46.16 "/>
<radialGradient id="SVGID_1_" cx="44.7961" cy="43.567" r="38.4381" gradientUnits="userSpaceOnUse">
	<stop  offset="0.9192" style="stop-color:#E53373"/>
	<stop  offset="0.9194" style="stop-color:#EA5A8D"/>
	<stop  offset="0.9197" style="stop-color:#EF80A8"/>
	<stop  offset="0.92" style="stop-color:#F3A3C0"/>
	<stop  offset="0.9203" style="stop-color:#F7BFD3"/>
	<stop  offset="0.9207" style="stop-color:#FAD7E3"/>
	<stop  offset="0.9211" style="stop-color:#FCE9F0"/>
	<stop  offset="0.9216" style="stop-color:#FEF6F9"/>
	<stop  offset="0.9222" style="stop-color:#FFFDFE"/>
	<stop  offset="0.9237" style="stop-color:#FFFFFF"/>
	<stop  offset="0.9349" style="stop-color:#FFFFFF"/>
	<stop  offset="1" style="stop-color:#FFFFFF"/>
</radialGradient>
<path fill="url(#SVGID_1_)" d="M69.59,49.59c-0.34,0.99-0.97,1.83-1.9,2.51c-0.93,0.68-1.89,1.03-2.88,1.03H54.08l-4.3,11.64
	c-0.41,0.99-1.08,1.81-2.02,2.46c-0.94,0.65-1.91,0.97-2.9,0.97h-3.49h-0.15L53.4,35.7c0.35-0.89,0.99-1.68,1.92-2.38
	c0.94-0.7,1.9-1.05,2.89-1.05h11.23c-5.71-9.69-16.25-16.2-28.32-16.2c-18.15,0-32.86,14.71-32.86,32.86
	c0,4.91,1.09,9.57,3.02,13.76L21.1,35.7c0.42-0.89,1.1-1.68,2.05-2.38c0.95-0.7,1.92-1.05,2.92-1.05h3.49h0.15L18.96,61.13h3.03
	L31.3,35.7c0.38-0.89,1.05-1.68,2-2.38c0.95-0.7,1.92-1.05,2.92-1.05h3.54h0.05l-10.8,28.87h2.77L41.1,35.7
	c0.21-0.44,0.49-0.87,0.84-1.28c0.35-0.41,0.76-0.78,1.21-1.1c0.45-0.32,0.93-0.58,1.44-0.77c0.51-0.19,1-0.28,1.48-0.28h3.59
	L37.58,64.77c-0.3,0.99-0.92,1.81-1.84,2.46c-0.92,0.65-1.88,0.97-2.87,0.97H14.53c5.97,8.22,15.66,13.57,26.6,13.57
	c18.15,0,32.86-14.71,32.86-32.86c0-2.86-0.37-5.64-1.06-8.29L69.59,49.59z"/>
<path fill="#FFFFFF" d="M35.74,67.23c0.92-0.65,1.54-1.47,1.84-2.46l12.08-32.51h-3.59c-0.48,0-0.97,0.09-1.48,0.28
	c-0.51,0.19-0.99,0.44-1.44,0.77c-0.45,0.33-0.86,0.69-1.21,1.1c-0.35,0.41-0.63,0.84-0.84,1.28l-9.32,25.43h-2.77l10.8-28.87h-0.05
	h-3.54c-0.99,0-1.96,0.35-2.92,1.05c-0.95,0.7-1.62,1.5-2,2.38l-9.32,25.43h-3.03l20.12-54h-0.15h-3.49c-0.99,0-1.96,0.35-2.92,1.05
	c-0.95,0.7-1.64,1.5-2.05,2.38L11.29,62.68c0.9,1.95,1.99,3.8,3.24,5.53h18.34C33.86,68.21,34.82,67.88,35.74,67.23z"/>
<path fill="#FFFFFF" d="M55.33,33.32c-0.94,0.7-1.58,1.5-1.92,2.38L33.56,88.84h0.15h3.49c0.99,0,1.96-0.32,2.9-0.97
	c0.94-0.65,1.61-1.47,2.02-2.46l11.96-32.27H64.8c0.99,0,1.95-0.34,2.88-1.03c0.93-0.68,1.57-1.52,1.9-2.51l3.35-8.96
	c-0.77-2.98-1.96-5.79-3.48-8.37H58.22C57.23,32.26,56.26,32.62,55.33,33.32z M66.28,39.34l-2.49,6.82h-7.13l2.49-6.82H66.28z"/>
<linearGradient id="SVGID_2_" gradientUnits="userSpaceOnUse" x1="72.5281" y1="80.2747" x2="78.0211" y2="54.1829">
	<stop  offset="0.9192" style="stop-color:#E53373"/>
	<stop  offset="0.9194" style="stop-color:#EA5A8D"/>
	<stop  offset="0.9197" style="stop-color:#EF80A8"/>
	<stop  offset="0.92" style="stop-color:#F3A3C0"/>
	<stop  offset="0.9203" style="stop-color:#F7BFD3"/>
	<stop  offset="0.9207" style="stop-color:#FAD7E3"/>
	<stop  offset="0.9211" style="stop-color:#FCE9F0"/>
	<stop  offset="0.9216" style="stop-color:#FEF6F9"/>
	<stop  offset="0.9222" style="stop-color:#FFFDFE"/>
	<stop  offset="0.9237" style="stop-color:#FFFFFF"/>
	<stop  offset="0.9349" style="stop-color:#FFFFFF"/>
	<stop  offset="1" style="stop-color:#FFFFFF"/>
</linearGradient>
<path fill="url(#SVGID_2_)" d="M83.7,50.25h-1.58l-5.89,15.65c-0.07,0.29-0.21,0.57-0.42,0.84c-0.21,0.26-0.45,0.49-0.71,0.68
	c-0.27,0.19-0.55,0.34-0.86,0.44c-0.31,0.11-0.62,0.16-0.94,0.16h-2.21l6.52-17.77h-1.45l-5.86,15.65
	c-0.19,0.61-0.57,1.12-1.15,1.51c-0.58,0.4-1.17,0.6-1.78,0.6h-2.24l7.4-20.01c0.19-0.55,0.58-1.04,1.17-1.47
	c0.59-0.43,1.18-0.65,1.79-0.65h14.08h0.1h0.09l-7.47,20.01c-0.23,0.61-0.63,1.12-1.21,1.51c-0.58,0.4-1.17,0.6-1.78,0.6h-2.18
	L83.7,50.25z"/>
<linearGradient id="SVGID_3_" gradientUnits="userSpaceOnUse" x1="87.915" y1="83.5141" x2="93.4081" y2="57.4222">
	<stop  offset="0.9192" style="stop-color:#E53373"/>
	<stop  offset="0.9194" style="stop-color:#EA5A8D"/>
	<stop  offset="0.9197" style="stop-color:#EF80A8"/>
	<stop  offset="0.92" style="stop-color:#F3A3C0"/>
	<stop  offset="0.9203" style="stop-color:#F7BFD3"/>
	<stop  offset="0.9207" style="stop-color:#FAD7E3"/>
	<stop  offset="0.9211" style="stop-color:#FCE9F0"/>
	<stop  offset="0.9216" style="stop-color:#FEF6F9"/>
	<stop  offset="0.9222" style="stop-color:#FFFDFE"/>
	<stop  offset="0.9237" style="stop-color:#FFFFFF"/>
	<stop  offset="0.9349" style="stop-color:#FFFFFF"/>
	<stop  offset="1" style="stop-color:#FFFFFF"/>
</linearGradient>
<path fill="url(#SVGID_3_)" d="M90.72,62.81l-0.34,0.88l6.7-0.03c0.02,0,0.03,0.01,0.02,0.03l-0.8,2.19
	c-0.23,0.61-0.64,1.13-1.23,1.54c-0.59,0.41-1.2,0.62-1.84,0.62h-8.81h-0.06l0.01-0.03l4.54-12.09c0.21-0.55,0.58-1.03,1.1-1.45
	c0.52-0.42,1.06-0.66,1.62-0.73c0.09-0.02,0.19-0.03,0.29-0.03h9.06l-0.01,0.03l-2.69,7.23c-0.22,0.57-0.63,1.01-1.23,1.33
	c-0.6,0.32-1.18,0.47-1.72,0.47L90.72,62.81z M92.1,59.15h2.49L95,58.08h-2.49L92.1,59.15z"/>
<polygon fill="none" points="102.88,63.73 106.29,63.73 108.38,58.08 105.01,58.08 "/>
<path fill="#4CB8AA" d="M117.21,46.02l0.02-0.09h-2.15c-0.61,0-1.21,0.22-1.8,0.66c-0.59,0.44-1.01,0.97-1.26,1.58l-2.04,5.55h-5.55
	h-0.16c-0.6,0.04-1.17,0.27-1.71,0.69c-0.54,0.42-0.91,0.93-1.12,1.52l-4.51,12.09l-0.01,0.03h9.94c0.61,0,1.21-0.2,1.79-0.62
	c0.58-0.41,0.98-0.92,1.18-1.53l7.4-19.88H117.21z M106.29,63.73h-3.41l2.13-5.65h3.38L106.29,63.73z M106.29,63.73h-3.41l2.13-5.65
	h3.38L106.29,63.73z"/>
<linearGradient id="SVGID_4_" gradientUnits="userSpaceOnUse" x1="109.8813" y1="88.1386" x2="115.3743" y2="62.0467">
	<stop  offset="0.9192" style="stop-color:#E53373"/>
	<stop  offset="0.9194" style="stop-color:#EA5A8D"/>
	<stop  offset="0.9197" style="stop-color:#EF80A8"/>
	<stop  offset="0.92" style="stop-color:#F3A3C0"/>
	<stop  offset="0.9203" style="stop-color:#F7BFD3"/>
	<stop  offset="0.9207" style="stop-color:#FAD7E3"/>
	<stop  offset="0.9211" style="stop-color:#FCE9F0"/>
	<stop  offset="0.9216" style="stop-color:#FEF6F9"/>
	<stop  offset="0.9222" style="stop-color:#FFFDFE"/>
	<stop  offset="0.9237" style="stop-color:#FFFFFF"/>
	<stop  offset="0.9349" style="stop-color:#FFFFFF"/>
	<stop  offset="1" style="stop-color:#FFFFFF"/>
</linearGradient>
<path fill="url(#SVGID_4_)" d="M110.16,68.02l4.54-12.09c0.22-0.59,0.63-1.1,1.22-1.55c0.59-0.44,1.19-0.66,1.8-0.66h2.15h0.03
	l-0.01,0.03l-4.56,12.15c-0.25,0.61-0.66,1.12-1.22,1.53c-0.56,0.41-1.15,0.62-1.76,0.62h-2.15
	C110.17,68.05,110.15,68.04,110.16,68.02z M117.37,48.01c0.31-0.59,0.71-1.05,1.19-1.37c0.49-0.33,1.07-0.54,1.76-0.63
	c0.69-0.09,1.49-0.12,2.4-0.08l-0.02,0.09l-1.05,2.71c-0.2,0.59-0.57,0.99-1.09,1.22s-1.09,0.33-1.7,0.33h-2.15l-0.02-0.03
	C116.83,49.35,117.06,48.6,117.37,48.01z"/>
<linearGradient id="SVGID_5_" gradientUnits="userSpaceOnUse" x1="117.7297" y1="89.7909" x2="123.2227" y2="63.699">
	<stop  offset="0.9192" style="stop-color:#E53373"/>
	<stop  offset="0.9194" style="stop-color:#EA5A8D"/>
	<stop  offset="0.9197" style="stop-color:#EF80A8"/>
	<stop  offset="0.92" style="stop-color:#F3A3C0"/>
	<stop  offset="0.9203" style="stop-color:#F7BFD3"/>
	<stop  offset="0.9207" style="stop-color:#FAD7E3"/>
	<stop  offset="0.9211" style="stop-color:#FCE9F0"/>
	<stop  offset="0.9216" style="stop-color:#FEF6F9"/>
	<stop  offset="0.9222" style="stop-color:#FFFDFE"/>
	<stop  offset="0.9237" style="stop-color:#FFFFFF"/>
	<stop  offset="0.9349" style="stop-color:#FFFFFF"/>
	<stop  offset="1" style="stop-color:#FFFFFF"/>
</linearGradient>
<path fill="url(#SVGID_5_)" d="M125.75,58.99l0.37-0.92h-6.69l0.01-0.06l0.81-2.1c0.21-0.61,0.6-1.12,1.19-1.55
	c0.59-0.43,1.17-0.64,1.76-0.64h8.9l-0.01,0.03l-4.56,12.15c-0.19,0.55-0.54,1.03-1.05,1.44c-0.51,0.41-1.04,0.65-1.6,0.71h-0.06
	h-0.28h-8.55h-0.44c-0.02,0-0.03-0.01-0.02-0.03c0.45-1.2,0.9-2.4,1.35-3.61c0.45-1.21,0.9-2.41,1.38-3.61
	c0.21-0.55,0.62-0.98,1.21-1.31c0.59-0.33,1.15-0.49,1.68-0.49H125.75z M124.43,62.56h-2.49l-0.43,1.14l2.5-0.03L124.43,62.56z"/>
<linearGradient id="SVGID_6_" gradientUnits="userSpaceOnUse" x1="143.9352" y1="30.2357" x2="138.9915" y2="57.7008">
	<stop  offset="0.9192" style="stop-color:#E53373"/>
	<stop  offset="0.9194" style="stop-color:#EA5A8D"/>
	<stop  offset="0.9197" style="stop-color:#EF80A8"/>
	<stop  offset="0.92" style="stop-color:#F3A3C0"/>
	<stop  offset="0.9203" style="stop-color:#F7BFD3"/>
	<stop  offset="0.9207" style="stop-color:#FAD7E3"/>
	<stop  offset="0.9211" style="stop-color:#FCE9F0"/>
	<stop  offset="0.9216" style="stop-color:#FEF6F9"/>
	<stop  offset="0.9222" style="stop-color:#FFFDFE"/>
	<stop  offset="0.9237" style="stop-color:#FFFFFF"/>
	<stop  offset="0.9349" style="stop-color:#FFFFFF"/>
	<stop  offset="1" style="stop-color:#FFFFFF"/>
</linearGradient>
<path fill="url(#SVGID_6_)" d="M141.74,45.9h7.23h0.1l-0.72,2.11c-0.25,0.61-0.67,1.14-1.26,1.58c-0.59,0.44-1.19,0.66-1.8,0.66
	h-5.14l-4.95,13.41h7.26l-0.02,0.06l-0.83,2.18c-0.21,0.61-0.6,1.12-1.16,1.51c-0.57,0.4-1.16,0.6-1.77,0.6h-9.47l7.37-20.01
	c0.11-0.27,0.27-0.54,0.49-0.79c0.22-0.25,0.47-0.48,0.75-0.68c0.28-0.2,0.57-0.36,0.89-0.47c0.31-0.12,0.63-0.17,0.94-0.17H141.74z
	"/>
<linearGradient id="SVGID_7_" gradientUnits="userSpaceOnUse" x1="153.9281" y1="32.0344" x2="148.9844" y2="59.4995">
	<stop  offset="0.9192" style="stop-color:#E53373"/>
	<stop  offset="0.9194" style="stop-color:#EA5A8D"/>
	<stop  offset="0.9197" style="stop-color:#EF80A8"/>
	<stop  offset="0.92" style="stop-color:#F3A3C0"/>
	<stop  offset="0.9203" style="stop-color:#F7BFD3"/>
	<stop  offset="0.9207" style="stop-color:#FAD7E3"/>
	<stop  offset="0.9211" style="stop-color:#FCE9F0"/>
	<stop  offset="0.9216" style="stop-color:#FEF6F9"/>
	<stop  offset="0.9222" style="stop-color:#FFFDFE"/>
	<stop  offset="0.9237" style="stop-color:#FFFFFF"/>
	<stop  offset="0.9349" style="stop-color:#FFFFFF"/>
	<stop  offset="1" style="stop-color:#FFFFFF"/>
</linearGradient>
<path fill="url(#SVGID_7_)" d="M143.17,68.02l7.3-19.85c0.25-0.61,0.67-1.14,1.26-1.58c0.59-0.44,1.19-0.66,1.8-0.66h2.15
	c0.02,0.02,0.02,0.04,0.02,0.06l-0.01,0.03l-7.37,19.88c-0.23,0.61-0.63,1.12-1.2,1.53c-0.57,0.41-1.17,0.62-1.8,0.62h-2.15
	L143.17,68.02z"/>
<linearGradient id="SVGID_8_" gradientUnits="userSpaceOnUse" x1="163.3113" y1="33.7234" x2="158.3676" y2="61.1885">
	<stop  offset="0.9192" style="stop-color:#E53373"/>
	<stop  offset="0.9194" style="stop-color:#EA5A8D"/>
	<stop  offset="0.9197" style="stop-color:#EF80A8"/>
	<stop  offset="0.92" style="stop-color:#F3A3C0"/>
	<stop  offset="0.9203" style="stop-color:#F7BFD3"/>
	<stop  offset="0.9207" style="stop-color:#FAD7E3"/>
	<stop  offset="0.9211" style="stop-color:#FCE9F0"/>
	<stop  offset="0.9216" style="stop-color:#FEF6F9"/>
	<stop  offset="0.9222" style="stop-color:#FFFDFE"/>
	<stop  offset="0.9237" style="stop-color:#FFFFFF"/>
	<stop  offset="0.9349" style="stop-color:#FFFFFF"/>
	<stop  offset="1" style="stop-color:#FFFFFF"/>
</linearGradient>
<path fill="url(#SVGID_8_)" d="M156.47,62.81l-0.34,0.88l6.7-0.03c0.02,0,0.03,0.01,0.02,0.03l-0.8,2.19
	c-0.23,0.61-0.64,1.13-1.23,1.54c-0.59,0.41-1.2,0.62-1.84,0.62h-8.81h-0.06l0.01-0.03l4.54-12.09c0.21-0.55,0.58-1.03,1.1-1.45
	c0.52-0.42,1.06-0.66,1.62-0.73c0.09-0.02,0.19-0.03,0.29-0.03h9.06l-0.01,0.03l-2.69,7.23c-0.22,0.57-0.63,1.01-1.23,1.33
	c-0.6,0.32-1.18,0.47-1.72,0.47L156.47,62.81z M157.84,59.15h2.49l0.41-1.07h-2.49L157.84,59.15z"/>
<linearGradient id="SVGID_9_" gradientUnits="userSpaceOnUse" x1="175.4032" y1="35.9" x2="170.4595" y2="63.365">
	<stop  offset="0.9192" style="stop-color:#E53373"/>
	<stop  offset="0.9194" style="stop-color:#EA5A8D"/>
	<stop  offset="0.9197" style="stop-color:#EF80A8"/>
	<stop  offset="0.92" style="stop-color:#F3A3C0"/>
	<stop  offset="0.9203" style="stop-color:#F7BFD3"/>
	<stop  offset="0.9207" style="stop-color:#FAD7E3"/>
	<stop  offset="0.9211" style="stop-color:#FCE9F0"/>
	<stop  offset="0.9216" style="stop-color:#FEF6F9"/>
	<stop  offset="0.9222" style="stop-color:#FFFDFE"/>
	<stop  offset="0.9237" style="stop-color:#FFFFFF"/>
	<stop  offset="0.9349" style="stop-color:#FFFFFF"/>
	<stop  offset="1" style="stop-color:#FFFFFF"/>
</linearGradient>
<path fill="url(#SVGID_9_)" d="M172.84,58.99l0.37-0.92h-6.69l0.01-0.06l0.81-2.1c0.21-0.61,0.6-1.12,1.19-1.55
	c0.59-0.43,1.17-0.64,1.76-0.64h8.9l-0.01,0.03l-4.56,12.15c-0.19,0.55-0.54,1.03-1.05,1.44c-0.51,0.41-1.04,0.65-1.6,0.71h-0.06
	h-0.28h-8.55h-0.44c-0.02,0-0.03-0.01-0.02-0.03c0.45-1.2,0.9-2.4,1.35-3.61c0.45-1.21,0.9-2.41,1.38-3.61
	c0.21-0.55,0.62-0.98,1.21-1.31c0.59-0.33,1.15-0.49,1.68-0.49H172.84z M171.52,62.56h-2.49l-0.43,1.14l2.5-0.03L171.52,62.56z"/>
<linearGradient id="SVGID_10_" gradientUnits="userSpaceOnUse" x1="187.6609" y1="38.1063" x2="182.7172" y2="65.5714">
	<stop  offset="0.9192" style="stop-color:#E53373"/>
	<stop  offset="0.9194" style="stop-color:#EA5A8D"/>
	<stop  offset="0.9197" style="stop-color:#EF80A8"/>
	<stop  offset="0.92" style="stop-color:#F3A3C0"/>
	<stop  offset="0.9203" style="stop-color:#F7BFD3"/>
	<stop  offset="0.9207" style="stop-color:#FAD7E3"/>
	<stop  offset="0.9211" style="stop-color:#FCE9F0"/>
	<stop  offset="0.9216" style="stop-color:#FEF6F9"/>
	<stop  offset="0.9222" style="stop-color:#FFFDFE"/>
	<stop  offset="0.9237" style="stop-color:#FFFFFF"/>
	<stop  offset="0.9349" style="stop-color:#FFFFFF"/>
	<stop  offset="1" style="stop-color:#FFFFFF"/>
</linearGradient>
<path fill="url(#SVGID_10_)" d="M185.96,58.08h-2.68l-3,7.83c-0.21,0.61-0.6,1.12-1.18,1.53c-0.58,0.41-1.19,0.61-1.82,0.61h-2.15
	l0.01-0.03l4.54-12.09c0.21-0.61,0.59-1.12,1.15-1.53c0.56-0.41,1.15-0.64,1.77-0.68h0.06h1.23h7.99h0.09l-0.01,0.03l-4.56,12.15
	c-0.23,0.61-0.63,1.12-1.2,1.53c-0.57,0.41-1.16,0.62-1.77,0.62h-2.18l0.01-0.03L185.96,58.08z"/>
<linearGradient id="SVGID_11_" gradientUnits="userSpaceOnUse" x1="199.6297" y1="40.2607" x2="194.686" y2="67.7258">
	<stop  offset="0.9192" style="stop-color:#E53373"/>
	<stop  offset="0.9194" style="stop-color:#EA5A8D"/>
	<stop  offset="0.9197" style="stop-color:#EF80A8"/>
	<stop  offset="0.92" style="stop-color:#F3A3C0"/>
	<stop  offset="0.9203" style="stop-color:#F7BFD3"/>
	<stop  offset="0.9207" style="stop-color:#FAD7E3"/>
	<stop  offset="0.9211" style="stop-color:#FCE9F0"/>
	<stop  offset="0.9216" style="stop-color:#FEF6F9"/>
	<stop  offset="0.9222" style="stop-color:#FFFDFE"/>
	<stop  offset="0.9237" style="stop-color:#FFFFFF"/>
	<stop  offset="0.9349" style="stop-color:#FFFFFF"/>
	<stop  offset="1" style="stop-color:#FFFFFF"/>
</linearGradient>
<path fill="url(#SVGID_11_)" d="M193.96,62.81l-0.34,0.88l6.7-0.03c0.02,0,0.03,0.01,0.02,0.03l-0.8,2.19
	c-0.23,0.61-0.64,1.13-1.23,1.54c-0.59,0.41-1.2,0.62-1.84,0.62h-8.81h-0.06l0.01-0.03l4.54-12.09c0.21-0.55,0.58-1.03,1.1-1.45
	c0.52-0.42,1.06-0.66,1.62-0.73c0.09-0.02,0.19-0.03,0.29-0.03h9.06l-0.01,0.03l-2.69,7.23c-0.22,0.57-0.63,1.01-1.23,1.33
	c-0.6,0.32-1.18,0.47-1.72,0.47L193.96,62.81z M195.33,59.15h2.49l0.41-1.07h-2.49L195.33,59.15z"/>
<linearGradient id="SVGID_12_" gradientUnits="userSpaceOnUse" x1="210.8943" y1="42.2883" x2="205.9506" y2="69.7534">
	<stop  offset="0.9192" style="stop-color:#E53373"/>
	<stop  offset="0.9194" style="stop-color:#EA5A8D"/>
	<stop  offset="0.9197" style="stop-color:#EF80A8"/>
	<stop  offset="0.92" style="stop-color:#F3A3C0"/>
	<stop  offset="0.9203" style="stop-color:#F7BFD3"/>
	<stop  offset="0.9207" style="stop-color:#FAD7E3"/>
	<stop  offset="0.9211" style="stop-color:#FCE9F0"/>
	<stop  offset="0.9216" style="stop-color:#FEF6F9"/>
	<stop  offset="0.9222" style="stop-color:#FFFDFE"/>
	<stop  offset="0.9237" style="stop-color:#FFFFFF"/>
	<stop  offset="0.9349" style="stop-color:#FFFFFF"/>
	<stop  offset="1" style="stop-color:#FFFFFF"/>
</linearGradient>
<path fill="url(#SVGID_12_)" d="M208.62,58.08l-2.96,7.83c-0.23,0.61-0.63,1.12-1.21,1.53c-0.58,0.41-1.17,0.61-1.76,0.61h-2.15
	h-0.09l0.01-0.03L205,55.93c0.2-0.59,0.58-1.09,1.13-1.52c0.55-0.42,1.12-0.65,1.7-0.69h0.22h6.56c0.02,0,0.03,0.01,0.02,0.03
	l-0.79,2.13c-0.23,0.61-0.64,1.13-1.22,1.56c-0.59,0.42-1.17,0.64-1.76,0.64H208.62z"/>
</svg>
